lab8/Lab.vcd
$date
	Wed May 18 22:02:33 2022
$end
$version
	Icarus Verilog
$end
$timescale
	1ps
$end
$scope module lab8tb $end
$var wire 1 ! out_valid $end
$var wire 8 " ansY [7:0] $end
$var wire 8 # ansX [7:0] $end
$var reg 1 $ clk $end
$var reg 9 % correct [8:0] $end
$var reg 8 & dataX [7:0] $end
$var reg 8 ' dataY [7:0] $end
$var reg 1 ( fail $end
$var reg 1 ) getdata $end
$var reg 1 * give_valid $end
$var reg 3 + inout_flag [2:0] $end
$var reg 100 , line [99:0] $end
$var reg 4 - loop [3:0] $end
$var reg 1 . reset $end
$var reg 4 / state [3:0] $end
$var reg 4 0 testset [3:0] $end
$var integer 32 1 charcount [31:0] $end
$var integer 32 2 cycle [31:0] $end
$var integer 32 3 fd [31:0] $end
$var integer 32 4 i [31:0] $end
$var integer 32 5 loop_gold [31:0] $end
$var integer 32 6 loop_in [31:0] $end
$scope module xa $end
$var wire 1 $ clk $end
$var wire 8 7 dataX [7:0] $end
$var wire 8 8 dataY [7:0] $end
$var wire 1 * give_valid $end
$var wire 1 . reset $end
$var reg 8 9 ansX [7:0] $end
$var reg 8 : ansY [7:0] $end
$var reg 8 ; cnt [7:0] $end
$var reg 1 ! out_valid $end
$var reg 4 < state [3:0] $end
$var reg 8 = vector2_idx [7:0] $end
$var integer 32 > i [31:0] $end
$upscope $end
$upscope $end
$scope module lab8tb $end
$scope module xa $end
$var reg 8 ? \inX[0] [7:0] $end
$upscope $end
$upscope $end
$scope module lab8tb $end
$scope module xa $end
$var reg 8 @ \inY[0] [7:0] $end
$upscope $end
$upscope $end
$scope module lab8tb $end
$scope module xa $end
$var reg 8 A \tempX[0] [7:0] $end
$upscope $end
$upscope $end
$scope module lab8tb $end
$scope module xa $end
$var reg 8 B \tempY[0] [7:0] $end
$upscope $end
$upscope $end
$scope module lab8tb $end
$scope module xa $end
$var reg 4 C \count[0] [3:0] $end
$upscope $end
$upscope $end
$scope module lab8tb $end
$scope module xa $end
$var reg 8 D \inX[1] [7:0] $end
$upscope $end
$upscope $end
$scope module lab8tb $end
$scope module xa $end
$var reg 8 E \inY[1] [7:0] $end
$upscope $end
$upscope $end
$scope module lab8tb $end
$scope module xa $end
$var reg 8 F \tempX[1] [7:0] $end
$upscope $end
$upscope $end
$scope module lab8tb $end
$scope module xa $end
$var reg 8 G \tempY[1] [7:0] $end
$upscope $end
$upscope $end
$scope module lab8tb $end
$scope module xa $end
$var reg 4 H \count[1] [3:0] $end
$upscope $end
$upscope $end
$scope module lab8tb $end
$scope module xa $end
$var reg 8 I \inX[2] [7:0] $end
$upscope $end
$upscope $end
$scope module lab8tb $end
$scope module xa $end
$var reg 8 J \inY[2] [7:0] $end
$upscope $end
$upscope $end
$scope module lab8tb $end
$scope module xa $end
$var reg 8 K \tempX[2] [7:0] $end
$upscope $end
$upscope $end
$scope module lab8tb $end
$scope module xa $end
$var reg 8 L \tempY[2] [7:0] $end
$upscope $end
$upscope $end
$scope module lab8tb $end
$scope module xa $end
$var reg 4 M \count[2] [3:0] $end
$upscope $end
$upscope $end
$scope module lab8tb $end
$scope module xa $end
$var reg 8 N \inX[3] [7:0] $end
$upscope $end
$upscope $end
$scope module lab8tb $end
$scope module xa $end
$var reg 8 O \inY[3] [7:0] $end
$upscope $end
$upscope $end
$scope module lab8tb $end
$scope module xa $end
$var reg 8 P \tempX[3] [7:0] $end
$upscope $end
$upscope $end
$scope module lab8tb $end
$scope module xa $end
$var reg 8 Q \tempY[3] [7:0] $end
$upscope $end
$upscope $end
$scope module lab8tb $end
$scope module xa $end
$var reg 4 R \count[3] [3:0] $end
$upscope $end
$upscope $end
$scope module lab8tb $end
$scope module xa $end
$var reg 8 S \inX[4] [7:0] $end
$upscope $end
$upscope $end
$scope module lab8tb $end
$scope module xa $end
$var reg 8 T \inY[4] [7:0] $end
$upscope $end
$upscope $end
$scope module lab8tb $end
$scope module xa $end
$var reg 8 U \tempX[4] [7:0] $end
$upscope $end
$upscope $end
$scope module lab8tb $end
$scope module xa $end
$var reg 8 V \tempY[4] [7:0] $end
$upscope $end
$upscope $end
$scope module lab8tb $end
$scope module xa $end
$var reg 4 W \count[4] [3:0] $end
$upscope $end
$upscope $end
$scope module lab8tb $end
$scope module xa $end
$var reg 8 X \inX[5] [7:0] $end
$upscope $end
$upscope $end
$scope module lab8tb $end
$scope module xa $end
$var reg 8 Y \inY[5] [7:0] $end
$upscope $end
$upscope $end
$scope module lab8tb $end
$scope module xa $end
$var reg 8 Z \tempX[5] [7:0] $end
$upscope $end
$upscope $end
$scope module lab8tb $end
$scope module xa $end
$var reg 8 [ \tempY[5] [7:0] $end
$upscope $end
$upscope $end
$scope module lab8tb $end
$scope module xa $end
$var reg 4 \ \count[5] [3:0] $end
$upscope $end
$upscope $end
$scope module lab8tb $end
$var reg 7 ] \datx[0] [6:0] $end
$upscope $end
$scope module lab8tb $end
$var reg 7 ^ \daty[0] [6:0] $end
$upscope $end
$scope module lab8tb $end
$var reg 7 _ \goldx[0] [6:0] $end
$upscope $end
$scope module lab8tb $end
$var reg 7 ` \goldy[0] [6:0] $end
$upscope $end
$scope module lab8tb $end
$var reg 7 a \datx[1] [6:0] $end
$upscope $end
$scope module lab8tb $end
$var reg 7 b \daty[1] [6:0] $end
$upscope $end
$scope module lab8tb $end
$var reg 7 c \goldx[1] [6:0] $end
$upscope $end
$scope module lab8tb $end
$var reg 7 d \goldy[1] [6:0] $end
$upscope $end
$scope module lab8tb $end
$var reg 7 e \datx[2] [6:0] $end
$upscope $end
$scope module lab8tb $end
$var reg 7 f \daty[2] [6:0] $end
$upscope $end
$scope module lab8tb $end
$var reg 7 g \goldx[2] [6:0] $end
$upscope $end
$scope module lab8tb $end
$var reg 7 h \goldy[2] [6:0] $end
$upscope $end
$scope module lab8tb $end
$var reg 7 i \datx[3] [6:0] $end
$upscope $end
$scope module lab8tb $end
$var reg 7 j \daty[3] [6:0] $end
$upscope $end
$scope module lab8tb $end
$var reg 7 k \goldx[3] [6:0] $end
$upscope $end
$scope module lab8tb $end
$var reg 7 l \goldy[3] [6:0] $end
$upscope $end
$scope module lab8tb $end
$var reg 7 m \datx[4] [6:0] $end
$upscope $end
$scope module lab8tb $end
$var reg 7 n \daty[4] [6:0] $end
$upscope $end
$scope module lab8tb $end
$var reg 7 o \goldx[4] [6:0] $end
$upscope $end
$scope module lab8tb $end
$var reg 7 p \goldy[4] [6:0] $end
$upscope $end
$scope module lab8tb $end
$var reg 7 q \datx[5] [6:0] $end
$upscope $end
$scope module lab8tb $end
$var reg 7 r \daty[5] [6:0] $end
$upscope $end
$scope module lab8tb $end
$var reg 7 s \goldx[5] [6:0] $end
$upscope $end
$scope module lab8tb $end
$var reg 7 t \goldy[5] [6:0] $end
$upscope $end
$scope module lab8tb $end
$var reg 7 u \datx[6] [6:0] $end
$upscope $end
$scope module lab8tb $end
$var reg 7 v \daty[6] [6:0] $end
$upscope $end
$scope module lab8tb $end
$var reg 7 w \goldx[6] [6:0] $end
$upscope $end
$scope module lab8tb $end
$var reg 7 x \goldy[6] [6:0] $end
$upscope $end
$scope module lab8tb $end
$var reg 7 y \datx[7] [6:0] $end
$upscope $end
$scope module lab8tb $end
$var reg 7 z \daty[7] [6:0] $end
$upscope $end
$scope module lab8tb $end
$var reg 7 { \goldx[7] [6:0] $end
$upscope $end
$scope module lab8tb $end
$var reg 7 | \goldy[7] [6:0] $end
$upscope $end
$scope module lab8tb $end
$var reg 7 } \datx[8] [6:0] $end
$upscope $end
$scope module lab8tb $end
$var reg 7 ~ \daty[8] [6:0] $end
$upscope $end
$scope module lab8tb $end
$var reg 7 !" \goldx[8] [6:0] $end
$upscope $end
$scope module lab8tb $end
$var reg 7 "" \goldy[8] [6:0] $end
$upscope $end
$scope module lab8tb $end
$var reg 7 #" \datx[9] [6:0] $end
$upscope $end
$scope module lab8tb $end
$var reg 7 $" \daty[9] [6:0] $end
$upscope $end
$scope module lab8tb $end
$var reg 7 %" \goldx[9] [6:0] $end
$upscope $end
$scope module lab8tb $end
$var reg 7 &" \goldy[9] [6:0] $end
$upscope $end
$scope module lab8tb $end
$var reg 7 '" \datx[10] [6:0] $end
$upscope $end
$scope module lab8tb $end
$var reg 7 (" \daty[10] [6:0] $end
$upscope $end
$scope module lab8tb $end
$var reg 7 )" \goldx[10] [6:0] $end
$upscope $end
$scope module lab8tb $end
$var reg 7 *" \goldy[10] [6:0] $end
$upscope $end
$scope module lab8tb $end
$var reg 7 +" \datx[11] [6:0] $end
$upscope $end
$scope module lab8tb $end
$var reg 7 ," \daty[11] [6:0] $end
$upscope $end
$scope module lab8tb $end
$var reg 7 -" \goldx[11] [6:0] $end
$upscope $end
$scope module lab8tb $end
$var reg 7 ." \goldy[11] [6:0] $end
$upscope $end
$scope module lab8tb $end
$var reg 7 /" \datx[12] [6:0] $end
$upscope $end
$scope module lab8tb $end
$var reg 7 0" \daty[12] [6:0] $end
$upscope $end
$scope module lab8tb $end
$var reg 7 1" \goldx[12] [6:0] $end
$upscope $end
$scope module lab8tb $end
$var reg 7 2" \goldy[12] [6:0] $end
$upscope $end
$scope module lab8tb $end
$var reg 7 3" \datx[13] [6:0] $end
$upscope $end
$scope module lab8tb $end
$var reg 7 4" \daty[13] [6:0] $end
$upscope $end
$scope module lab8tb $end
$var reg 7 5" \goldx[13] [6:0] $end
$upscope $end
$scope module lab8tb $end
$var reg 7 6" \goldy[13] [6:0] $end
$upscope $end
$scope module lab8tb $end
$var reg 7 7" \datx[14] [6:0] $end
$upscope $end
$scope module lab8tb $end
$var reg 7 8" \daty[14] [6:0] $end
$upscope $end
$scope module lab8tb $end
$var reg 7 9" \goldx[14] [6:0] $end
$upscope $end
$scope module lab8tb $end
$var reg 7 :" \goldy[14] [6:0] $end
$upscope $end
$scope module lab8tb $end
$var reg 7 ;" \datx[15] [6:0] $end
$upscope $end
$scope module lab8tb $end
$var reg 7 <" \daty[15] [6:0] $end
$upscope $end
$scope module lab8tb $end
$var reg 7 =" \goldx[15] [6:0] $end
$upscope $end
$scope module lab8tb $end
$var reg 7 >" \goldy[15] [6:0] $end
$upscope $end
$scope module lab8tb $end
$var reg 7 ?" \datx[16] [6:0] $end
$upscope $end
$scope module lab8tb $end
$var reg 7 @" \daty[16] [6:0] $end
$upscope $end
$scope module lab8tb $end
$var reg 7 A" \goldx[16] [6:0] $end
$upscope $end
$scope module lab8tb $end
$var reg 7 B" \goldy[16] [6:0] $end
$upscope $end
$scope module lab8tb $end
$var reg 7 C" \datx[17] [6:0] $end
$upscope $end
$scope module lab8tb $end
$var reg 7 D" \daty[17] [6:0] $end
$upscope $end
$scope module lab8tb $end
$var reg 7 E" \goldx[17] [6:0] $end
$upscope $end
$scope module lab8tb $end
$var reg 7 F" \goldy[17] [6:0] $end
$upscope $end
$enddefinitions $end
#0
$dumpvars
b10011 F"
b1001100 E"
b1010110 D"
b100001 C"
b1010 B"
b110011 A"
b10010 @"
b11001 ?"
b10010 >"
b11001 ="
b1010 <"
b110011 ;"
b1010110 :"
b100001 9"
b1011001 8"
b101101 7"
b1011001 6"
b101101 5"
b10011 4"
b1001100 3"
b1001110 2"
b1001110 1"
b1001110 0"
b1001110 /"
b110010 ."
b1010 -"
b1010000 ,"
b1001100 +"
b1010010 *"
b11011 )"
b1010010 ("
b11011 '"
b1010000 &"
b1001100 %"
b111110 $"
b1011000 #"
b111110 ""
b1011000 !"
b1101 ~
b1000010 }
b1101 |
b1000010 {
b110010 z
b1010 y
b1110 x
b11111 w
b1110 v
b11111 u
b1101 t
b100010 s
b1010110 r
b100001 q
b1001000 p
b10001 o
b1001000 n
b10001 m
b1010110 l
b100001 k
b1011000 j
b111110 i
b1011000 h
b111110 g
b1101 f
b100010 e
b11100 d
b1010100 c
b11100 b
b1010100 a
b1110 `
b1000101 _
b1110 ^
b1000101 ]
bx \
bx [
bx Z
bx Y
bx X
bx W
bx V
bx U
bx T
bx S
bx R
bx Q
bx P
bx O
bx N
bx M
bx L
bx K
bx J
bx I
bx H
bx G
bx F
bx E
bx D
bx C
bx B
bx A
bx @
bx ?
b110 >
bx =
bx <
bx ;
bx :
bx 9
bx 8
bx 7
b10010 6
b10010 5
b10010 4
b10000000000000000000000000000011 3
b0 2
b1 1
bx 0
bx /
0.
bx -
b1010 ,
b10 +
x*
0)
x(
bx '
bx &
bx %
0$
bx #
bx "
x!
$end
#25
b1 2
1$
#27
0!
b0 =
b0 ;
b101 \
b0 [
b0 Z
b0 Y
b0 X
b100 W
b0 V
b0 U
b0 T
b0 S
b11 R
b0 Q
b0 P
b0 O
b0 N
b10 M
b0 L
b0 K
b0 J
b0 I
b1 H
b0 G
b0 F
b0 E
b0 D
b0 C
b0 B
b0 A
b0 @
b0 ?
b1 <
b110 >
1.
#50
b1 0
b0 %
b0 5
b0 6
b0 -
0.
b0 /
0(
0$
#75
b10 2
1$
#100
b1 /
0$
#125
b11 2
1$
#150
b1 6
b1 -
b1110 '
b1110 8
b1000101 &
b1000101 7
1*
0$
#175
b1 ;
b1110 @
b1000101 ?
b100 2
1$
#200
b10 6
b10 -
b11100 '
b11100 8
b1010100 &
b1010100 7
0$
#225
b10 ;
b11100 E
b1010100 D
b101 2
1$
#250
b11 6
b11 -
b1101 '
b1101 8
b100010 &
b100010 7
0$
#275
b11 ;
b1101 J
b100010 I
b110 2
1$
#300
b100 6
b100 -
b1011000 '
b1011000 8
b111110 &
b111110 7
0$
#325
b100 ;
b1011000 O
b111110 N
b111 2
1$
#350
b101 6
b101 -
b1001000 '
b1001000 8
b10001 &
b10001 7
0$
#375
b101 ;
b1001000 T
b10001 S
b1000 2
1$
#400
b110 6
b110 -
b1010110 '
b1010110 8
b100001 &
b100001 7
0$
#425
b110 ;
b1010110 Y
b100001 X
b1001 2
1$
#450
b0 -
0*
b10 /
0$
#475
b0 ;
b10 <
b1010 2
1$
#500
0$
#525
b1 ;
b0 B
b0 A
b1011 2
1$
#550
0$
#575
b10 ;
b1110 G
b1111 F
b1100 2
1$
#600
0$
#625
b11 ;
b11111111 L
b11011101 K
b1101 2
1$
#650
0$
#675
b100 ;
b1001010 Q
b11111001 P
b1110 2
1$
#700
0$
#725
b101 ;
b111010 V
b11001100 U
b1111 2
1$
#750
0$
#775
b110 ;
b1001000 [
b11011100 Z
b10000 2
1$
#800
0$
#825
b0 ;
b11 <
b10001 2
1$
#850
0$
#875
b1 ;
b10010 2
1$
#900
0$
#925
b10 ;
b10011 2
1$
#950
0$
#975
b11 ;
b10100 2
1$
#1000
0$
#1025
b100 ;
b10101 2
1$
#1050
0$
#1075
b101 ;
b10110 2
1$
#1100
0$
#1125
b0 ;
b1 =
b10111 2
1$
#1150
0$
#1175
b1 ;
b11000 2
1$
#1200
0$
#1225
b10 ;
b11001 2
1$
#1250
0$
#1275
b11 ;
b11010 2
1$
#1300
0$
#1325
b100 ;
b11011 2
1$
#1350
0$
#1375
b101 ;
b11100 2
1$
#1400
0$
#1425
b0 ;
b10 =
b11101 2
1$
#1450
0$
#1475
b1 ;
b11110 2
1$
#1500
0$
#1525
b10 ;
b11111 2
1$
#1550
0$
#1575
b11 ;
b100000 2
1$
#1600
0$
#1625
b100 ;
b100001 2
1$
#1650
0$
#1675
b101 ;
b100010 2
1$
#1700
0$
#1725
b0 ;
b11 =
b100011 2
1$
#1750
0$
#1775
b1 ;
b100100 2
1$
#1800
0$
#1825
b10 ;
b100101 2
1$
#1850
0$
#1875
b11 ;
b100110 2
1$
#1900
0$
#1925
b100 ;
b100111 2
1$
#1950
0$
#1975
b101 ;
b101000 2
1$
#2000
0$
#2025
b0 ;
b100 =
b101001 2
1$
#2050
0$
#2075
b1 ;
b101010 2
1$
#2100
0$
#2125
b10 ;
b101011 2
1$
#2150
0$
#2175
b11 ;
b101100 2
1$
#2200
0$
#2225
b100 ;
b101101 2
1$
#2250
0$
#2275
b101 ;
b101110 2
1$
#2300
0$
#2325
b0 ;
b101 =
b101111 2
1$
#2350
0$
#2375
b1 ;
b110000 2
1$
#2400
0$
#2425
b10 ;
b110001 2
1$
#2450
0$
#2475
b11 ;
b110010 2
1$
#2500
0$
#2525
b100 ;
b110011 2
1$
#2550
0$
#2575
b101 ;
b110100 2
1$
#2600
0$
#2625
b0 ;
b100 <
b110101 2
1$
#2650
0$
#2675
b1 ;
b110110 2
1$
#2700
0$
#2725
b10 ;
b110111 2
1$
#2750
0$
#2775
b11 ;
b111000 2
1$
#2800
0$
#2825
b100 ;
b111001 2
1$
#2850
0$
#2875
b101 ;
b111010 2
1$
#2900
0$
#2925
b110 ;
b111011 2
1$
#2950
0$
#2975
b111 ;
b111100 2
1$
#3000
0$
#3025
b0 ;
b101 <
b111101 2
1$
#3050
0$
#3075
b1 ;
b1110 "
b1110 :
b1000101 #
b1000101 9
1!
b111110 2
1$
#3100
b1 5
b1 -
b1 %
0$
#3125
b10 ;
b11100 "
b11100 :
b1010100 #
b1010100 9
b111111 2
1$
#3150
b10 5
b10 -
b10 %
0$
#3175
b11 ;
b1011000 "
b1011000 :
b111110 #
b111110 9
b1000000 2
1$
#3200
b11 5
b11 -
b11 %
0$
#3225
b100 ;
b1010110 "
b1010110 :
b100001 #
b100001 9
b1000001 2
1$
#3250
b100 5
b100 -
b100 %
0$
#3275
b101 ;
b1001000 "
b1001000 :
b10001 #
b10001 9
b1000010 2
1$
#3300
b101 5
b101 -
b101 %
0$
#3325
b110 ;
b1101 "
b1101 :
b100010 #
b100010 9
b1000011 2
1$
#3350
b110 5
b0 /
b10 0
b1 -
b110 %
0$
#3375
0!
b0 <
b1000100 2
1$
#3400
b0 -
b1 /
0$
#3425
b0 =
b0 ;
b101 \
b0 [
b0 Z
b0 Y
b0 X
b100 W
b0 V
b0 U
b0 T
b0 S
b11 R
b0 Q
b0 P
b0 O
b0 N
b10 M
b0 L
b0 K
b0 J
b0 I
b1 H
b0 G
b0 F
b0 E
b0 D
b0 C
b0 B
b0 A
b0 @
b0 ?
b1 <
b110 >
b1000101 2
1$
#3450
b111 6
b1 -
b1110 '
b1110 8
b11111 &
b11111 7
1*
0$
#3475
b1 ;
b1110 @
b11111 ?
b1000110 2
1$
#3500
b1000 6
b10 -
b110010 '
b110010 8
b1010 &
b1010 7
0$
#3525
b10 ;
b110010 E
b1010 D
b1000111 2
1$
#3550
b1001 6
b11 -
b1101 '
b1101 8
b1000010 &
b1000010 7
0$
#3575
b11 ;
b1101 J
b1000010 I
b1001000 2
1$
#3600
b1010 6
b100 -
b111110 '
b111110 8
b1011000 &
b1011000 7
0$
#3625
b100 ;
b111110 O
b1011000 N
b1001001 2
1$
#3650
b1011 6
b101 -
b1010010 '
b1010010 8
b11011 &
b11011 7
0$
#3675
b101 ;
b1010010 T
b11011 S
b1001010 2
1$
#3700
b1100 6
b110 -
b1010000 '
b1010000 8
b1001100 &
b1001100 7
0$
#3725
b110 ;
b1010000 Y
b1001100 X
b1001011 2
1$
#3750
b0 -
0*
b10 /
0$
#3775
b0 ;
b10 <
b1001100 2
1$
#3800
0$
#3825
b1 ;
b0 B
b0 A
b1001101 2
1$
#3850
0$
#3875
b10 ;
b100100 G
b11101011 F
b1001110 2
1$
#3900
0$
#3925
b11 ;
b11111111 L
b100011 K
b1001111 2
1$
#3950
0$
#3975
b100 ;
b110000 Q
b111001 P
b1010000 2
1$
#4000
0$
#4025
b101 ;
b1000100 V
b11111100 U
b1010001 2
1$
#4050
0$
#4075
b110 ;
b1000010 [
b101101 Z
b1010010 2
1$
#4100
0$
#4125
b0 ;
b11 <
b1010011 2
1$
#4150
0$
#4175
b1 ;
b1010100 2
1$
#4200
0$
#4225
b10 ;
b1010101 2
1$
#4250
0$
#4275
b11 ;
b1010110 2
1$
#4300
0$
#4325
b100 ;
b1010111 2
1$
#4350
0$
#4375
b101 ;
b1011000 2
1$
#4400
0$
#4425
b0 ;
b1 =
b1011001 2
1$
#4450
0$
#4475
b1 ;
b1011010 2
1$
#4500
0$
#4525
b10 ;
b1011011 2
1$
#4550
0$
#4575
b11 ;
b1011100 2
1$
#4600
0$
#4625
b100 ;
b1011101 2
1$
#4650
0$
#4675
b101 ;
b1011110 2
1$
#4700
0$
#4725
b0 ;
b10 =
b1011111 2
1$
#4750
0$
#4775
b1 ;
b1100000 2
1$
#4800
0$
#4825
b10 ;
b1100001 2
1$
#4850
0$
#4875
b11 ;
b1100010 2
1$
#4900
0$
#4925
b100 ;
b1100011 2
1$
#4950
0$
#4975
b101 ;
b1100100 2
1$
#5000
0$
#5025
b0 ;
b11 =
b1100101 2
1$
#5050
0$
#5075
b1 ;
b1100110 2
1$
#5100
0$
#5125
b10 ;
b1100111 2
1$
#5150
0$
#5175
b11 ;
b1101000 2
1$
#5200
0$
#5225
b100 ;
b1101001 2
1$
#5250
0$
#5275
b101 ;
b1101010 2
1$
#5300
0$
#5325
b0 ;
b100 =
b1101011 2
1$
#5350
0$
#5375
b1 ;
b1101100 2
1$
#5400
0$
#5425
b10 ;
b1101101 2
1$
#5450
0$
#5475
b11 ;
b1101110 2
1$
#5500
0$
#5525
b100 ;
b1101111 2
1$
#5550
0$
#5575
b101 ;
b1110000 2
1$
#5600
0$
#5625
b0 ;
b101 =
b1110001 2
1$
#5650
0$
#5675
b1 ;
b1110010 2
1$
#5700
0$
#5725
b10 ;
b1110011 2
1$
#5750
0$
#5775
b11 ;
b1110100 2
1$
#5800
0$
#5825
b100 ;
b1110101 2
1$
#5850
0$
#5875
b101 ;
b1110110 2
1$
#5900
0$
#5925
b0 ;
b100 <
b1110111 2
1$
#5950
0$
#5975
b1 ;
b1111000 2
1$
#6000
0$
#6025
b10 ;
b1111001 2
1$
#6050
0$
#6075
b11 ;
b1111010 2
1$
#6100
0$
#6125
b100 ;
b1111011 2
1$
#6150
0$
#6175
b101 ;
b1111100 2
1$
#6200
0$
#6225
b110 ;
b1111101 2
1$
#6250
0$
#6275
b111 ;
b1111110 2
1$
#6300
0$
#6325
b0 ;
b101 <
b1111111 2
1$
#6350
0$
#6375
b1 ;
b1110 "
b1110 :
b11111 #
b11111 9
1!
b10000000 2
1$
#6400
b111 5
b1 -
b111 %
0$
#6425
b10 ;
b1101 "
b1101 :
b1000010 #
b1000010 9
b10000001 2
1$
#6450
b1000 5
b10 -
b1000 %
0$
#6475
b11 ;
b111110 "
b111110 :
b1011000 #
b1011000 9
b10000010 2
1$
#6500
b1001 5
b11 -
b1001 %
0$
#6525
b100 ;
b1010000 "
b1010000 :
b1001100 #
b1001100 9
b10000011 2
1$
#6550
b1010 5
b100 -
b1010 %
0$
#6575
b101 ;
b1010010 "
b1010010 :
b11011 #
b11011 9
b10000100 2
1$
#6600
b1011 5
b101 -
b1011 %
0$
#6625
b110 ;
b110010 "
b110010 :
b1010 #
b1010 9
b10000101 2
1$
#6650
b1100 5
b0 /
b11 0
b1 -
b1100 %
0$
#6675
0!
b0 <
b10000110 2
1$
#6700
b0 -
b1 /
0$
#6725
b0 =
b0 ;
b101 \
b0 [
b0 Z
b0 Y
b0 X
b100 W
b0 V
b0 U
b0 T
b0 S
b11 R
b0 Q
b0 P
b0 O
b0 N
b10 M
b0 L
b0 K
b0 J
b0 I
b1 H
b0 G
b0 F
b0 E
b0 D
b0 C
b0 B
b0 A
b0 @
b0 ?
b1 <
b110 >
b10000111 2
1$
#6750
b1101 6
b1 -
b1001110 '
b1001110 8
b1001110 &
b1001110 7
1*
0$
#6775
b1 ;
b1001110 @
b1001110 ?
b10001000 2
1$
#6800
b1110 6
b10 -
b10011 '
b10011 8
b1001100 &
b1001100 7
0$
#6825
b10 ;
b10011 E
b1001100 D
b10001001 2
1$
#6850
b1111 6
b11 -
b1011001 '
b1011001 8
b101101 &
b101101 7
0$
#6875
b11 ;
b1011001 J
b101101 I
b10001010 2
1$
#6900
b10000 6
b100 -
b1010 '
b1010 8
b110011 &
b110011 7
0$
#6925
b100 ;
b1010 O
b110011 N
b10001011 2
1$
#6950
b10001 6
b101 -
b10010 '
b10010 8
b11001 &
b11001 7
0$
#6975
b101 ;
b10010 T
b11001 S
b10001100 2
1$
#7000
b10010 6
b110 -
b1010110 '
b1010110 8
b100001 &
b100001 7
0$
#7025
b110 ;
b1010110 Y
b100001 X
b10001101 2
1$
#7050
b0 -
0*
b10 /
0$
#7075
b0 ;
b10 <
b10001110 2
1$
#7100
0$
#7125
b1 ;
b0 B
b0 A
b10001111 2
1$
#7150
0$
#7175
b10 ;
b11000101 G
b11111110 F
b10010000 2
1$
#7200
0$
#7225
b11 ;
b1011 L
b11011111 K
b10010001 2
1$
#7250
0$
#7275
b100 ;
b10111100 Q
b11100101 P
b10010010 2
1$
#7300
0$
#7325
b101 ;
b11000100 V
b11001011 U
b10010011 2
1$
#7350
0$
#7375
b110 ;
b1000 [
b11010011 Z
b10010100 2
1$
#7400
0$
#7425
b0 ;
b11 <
b10010101 2
1$
#7450
0$
#7475
b1 ;
b10010110 2
1$
#7500
0$
#7525
b10 ;
b10010111 2
1$
#7550
0$
#7575
b11 ;
b10011000 2
1$
#7600
0$
#7625
b100 ;
b10011001 2
1$
#7650
0$
#7675
b101 ;
b10011010 2
1$
#7700
0$
#7725
b0 ;
b1 =
b10011011 2
1$
#7750
0$
#7775
b1 ;
b10011100 2
1$
#7800
0$
#7825
b10 ;
b10011101 2
1$
#7850
0$
#7875
b11 ;
b10011110 2
1$
#7900
0$
#7925
b100 ;
b10011111 2
1$
#7950
0$
#7975
b101 ;
b10100000 2
1$
#8000
0$
#8025
b0 ;
b10 =
b10100001 2
1$
#8050
0$
#8075
b1 ;
b10100010 2
1$
#8100
0$
#8125
b10 ;
b10100011 2
1$
#8150
0$
#8175
b11 ;
b10100100 2
1$
#8200
0$
#8225
b100 ;
b10100101 2
1$
#8250
0$
#8275
b101 ;
b10100110 2
1$
#8300
0$
#8325
b0 ;
b11 =
b10100111 2
1$
#8350
0$
#8375
b1 ;
b10101000 2
1$
#8400
0$
#8425
b10 ;
b10101001 2
1$
#8450
0$
#8475
b11 ;
b10101010 2
1$
#8500
0$
#8525
b100 ;
b10101011 2
1$
#8550
0$
#8575
b101 ;
b10101100 2
1$
#8600
0$
#8625
b0 ;
b100 =
b10101101 2
1$
#8650
0$
#8675
b1 ;
b10101110 2
1$
#8700
0$
#8725
b10 ;
b10101111 2
1$
#8750
0$
#8775
b11 ;
b10110000 2
1$
#8800
0$
#8825
b100 ;
b10110001 2
1$
#8850
0$
#8875
b101 ;
b10110010 2
1$
#8900
0$
#8925
b0 ;
b101 =
b10110011 2
1$
#8950
0$
#8975
b1 ;
b10110100 2
1$
#9000
0$
#9025
b10 ;
b10110101 2
1$
#9050
0$
#9075
b11 ;
b10110110 2
1$
#9100
0$
#9125
b100 ;
b10110111 2
1$
#9150
0$
#9175
b101 ;
b10111000 2
1$
#9200
0$
#9225
b0 ;
b100 <
b10111001 2
1$
#9250
0$
#9275
b1 ;
b10111010 2
1$
#9300
0$
#9325
b10 ;
b10111011 2
1$
#9350
0$
#9375
b11 ;
b10111100 2
1$
#9400
0$
#9425
b100 ;
b10111101 2
1$
#9450
0$
#9475
b101 ;
b10111110 2
1$
#9500
0$
#9525
b110 ;
b10111111 2
1$
#9550
0$
#9575
b111 ;
b11000000 2
1$
#9600
0$
#9625
b0 ;
b101 <
b11000001 2
1$
#9650
0$
#9675
b1 ;
b1001110 "
b1001110 :
b1001110 #
b1001110 9
1!
b11000010 2
1$
#9700
b1101 5
b1 -
b1101 %
0$
#9725
b10 ;
b1011001 "
b1011001 :
b101101 #
b101101 9
b11000011 2
1$
#9750
b1110 5
b10 -
b1110 %
0$
#9775
b11 ;
b1010110 "
b1010110 :
b100001 #
b100001 9
b11000100 2
1$
#9800
b1111 5
b11 -
b1111 %
0$
#9825
b100 ;
b10010 "
b10010 :
b11001 #
b11001 9
b11000101 2
1$
#9850
b10000 5
b100 -
b10000 %
0$
#9875
b101 ;
b1010 "
b1010 :
b110011 #
b110011 9
b11000110 2
1$
#9900
b10001 5
b101 -
b10001 %
0$
#9925
b110 ;
b10011 "
b10011 :
b1001100 #
b1001100 9
b11000111 2
1$
#9950
b10010 5
b11 /
b100 0
b1 -
b10010 %
0$
#9975
0!
b0 <
b11001000 2
1$
